145.3203450833766794
26.3422446815333338
26.2700761937490590
26.9076391999590250
26.6606403826883707
26.3846094935506308
25.8846564282232556
25.6753161256689566
25.5330197818289193
25.4216035567839391
25.1665342806388388
25.1013846532082034
25.0071346183983607
24.7078140361085303
24.5827327444070569
24.4685502557559893
24.3604203796010736
24.1923746929438117
24.1282563652894169
24.0595169251615211
23.9720341204676792
23.9067062048145402
24.1625021455308193
23.7667484170756254
23.9218894574235001
23.7600139893377182
23.6534205700271087
23.2978729069533088
22.9687135972904564
22.8015561831785867
22.6836378964243970
22.5885211060456008
22.5185506944492069
22.4535356607747687
22.4212062104096717
22.3675236445241765
22.3262614163048134
22.2854485775448694
22.2402896165987869
22.2066636059700429
22.1619876261140263
22.1273991750515080
22.0899148456510304
22.0517624746701806
22.0149196924166901
21.9803435200441690
21.9428757253364068
21.9086855608735860
21.8773305224241135
21.8547267146700612
21.8314251821384069
21.7933350956236147
21.7595477368875727
21.7351179661330214
21.7015424609301135
21.6726032957605916
21.6513456116097700
21.6245856389754714
21.5980471790689244
21.5775217405625881
21.5437994560359272
21.5196089059062245
21.5962878337999769
21.5026371632794344
21.4387524360258226
21.3746252941934856
21.3214472412683058
21.2772653302986932
21.2292611846183625
21.6597753972813791
21.5845108310467531
21.3918890388744636
21.2588956797014603
21.1274763171995232
20.9742727413791705
20.7814724441721523
20.7300830502026514
20.5141857210999241
20.2695371402141333
20.0769108105562282
19.8777913578031438
19.7651091057517725
19.6276742907652562
19.5344712618257468
19.3956719683839793
19.3192932127590460
19.2180497650621582
19.1326950289369364
19.0685044856409860
18.9981010371813923
18.9261148291640673
18.8800111260745034
18.8047609351073426
18.7370042479434211
18.6977257464865332
18.7031222249924660
18.5451811630320904
18.4495686086241015
18.4044216953809538
18.3516976805982175
18.3006451871066389
18.2554550266201545
18.2020546119839430
18.1523909471634646
18.1192829019279351
18.0823768948183066
18.0469186519377693
18.0141067857807897
17.9820539434242619
17.9541940824899342
17.9160871612090808
17.8893079417762912
17.8534303145695041
17.8401066027473121
17.8397526675226814
17.9240793098209465
17.8752936120190675
17.8302290502551024
17.7841033718682979
17.7473390599779499
17.7136627472180876
17.6832985802179223
17.6539687426892939
17.6176432430601118
17.6017333946756267
17.5754362577428438
17.5468627800692971
17.5322719506135627
17.7416469117696494
17.6789808900731700
17.5897195688487216
17.5154837342207585
17.4428018938063190
17.3745754439193760
17.3373594810929568
17.2795666455172210
17.2259074800426433
17.1667191190402200
17.1324214027967088
17.0856737108857040
17.0421858772158927
17.0115120061502374
16.9611477227514840
16.9314228364919295
16.9079054315389605
16.8679474359709900
16.8374754961148234
16.8162156691159979
16.7844679748722427
16.7659042793928776
16.7369384176503608
16.7028617601684140
16.6911594855394725
16.6386468276633508
16.5928698719325993
16.5746400579205044
16.5488404559931617
16.5393205562625383
16.8127832201695995
16.7143266486678286
16.5838136812173325
16.5181072990492872
16.5320275357133859
16.4392267066596567
16.3904436647857104
16.3888009206871637
16.3427206429612610
16.2621229440134130
16.2734576593504912
16.2316456646005349
16.1721953488630881
16.1887401034488256
16.1660377412910705
16.1058252292156148
16.1052207153502458
16.0531498209110204
16.0409639678674054
16.0246285604881997
15.9993066972437390
16.0516673291359915
15.9219224986424397
15.8619326479844958
15.7955867203256961
15.7324328026944258
15.6747309568706576
15.6296523559054492
15.5801745084252499
15.5330319966112551
15.4918353147751304
15.4572706247829945
15.4216213380731464
15.3935749751341628
15.3637236263683317
15.3381345687112240
15.3087756091628737
15.2928089409381283
15.2699359110164341
15.2467862553656825
15.2374454990749726
16.2345671557185547
15.7977066793510481
15.7160596721937118
15.3222813486178655
14.9940760336130730
14.7043984042096003
14.4603417257634472
14.2401319082731366
14.0460059577389664
13.8794680485895423
13.7063540168648501
13.5583443870172928
13.1819761259538417
12.9730536323372920
12.8729496566196335
12.9460272889878674
12.7876580439850027
12.6705145993060011
12.5704702950282901
12.4679654147489956
12.3403433922540806
12.2526730964037043
12.2227335465464879
12.1015486722619876
12.0774916462248285
12.0195897622124512
11.9540499210740219
11.9164976530199240
11.8553702378873833
11.8034770987680790
11.8044270588566782
11.7634921698685488
11.7251893310775657
11.6897220664825081
11.6911401358664016
11.6567800170741549
11.6251606189880015
11.6305254129717177
11.5833326729490977
11.5532969997642461
11.5729940305727546
11.5400171169098655
11.5104297965589382
11.5057141988596108
11.4838812560561436
11.4639204889937805
11.4528180570645333
11.4347067821107231
11.4092811793229778
11.3964612794681930
11.3977103204396606
11.3701246015458768
11.3516526057263203
11.3228969605396248
11.3109736295651473
11.2817013208966497
11.2760607328430034
11.2561623932722821
11.2684086514994721
11.2368895515055538
11.2175331154776821
11.2079047197923991
11.1954905595985164
11.1880000024493391
11.1673806440543739
11.1667871282320288
11.1524164589488617
11.1350666037427359
11.1204890641944143
11.1227202386912865
11.1084251407365233
11.0917947978828053
11.0743641981802288
11.0695211293808828
11.0553614331043697
11.0525593771675119
11.0333704822030896
11.0281402735918803
11.0066184608686903
11.0183513964565751
10.9815015964959084
10.9909847393768398
10.9697887344597582
10.9552523950949166
10.9550671699814739
10.9432912104501661
10.9427371865660348
10.9187096294671431
10.9079254693087524
10.9061173023872122
10.9041890007452693
10.9029022842059664
11.1343474508283720
11.0673791882755168
11.0139190527829669
10.9310588400567621
10.9031241890201507
10.8501400354401323
10.8205143981482053
10.7867278893393799
10.7607748913859513
10.7343758795138395
10.7088976605333528
10.6808891240216592
10.6624641320986715
10.6402264272852634
10.6216266901796228
10.6019787934228482
10.5794799241411681
10.5702982335295932
10.5446698222832556
10.5263161222280015
10.5139458199689937
10.4997229354002037
10.4830973662529079
10.4699626323396817
10.4459281021351629
10.4391710874091075
10.4269168962207921
10.4153222455202084
10.3936701699940404
10.3904561521069372
10.3738533653026188
10.6167548636988993
10.4360717801442302
10.3235457896918703
10.2515737243676668
10.1938682163796894
10.1491401994524875
10.1062457737850035
10.0701057242031133
10.0347924026214610
10.0044014799189060
9.9764532204718321
9.9508605743405631
9.9269754191959620
9.9027094319963016
9.8768508633781007
9.8550363428843504
9.8338152295804946
9.8166778523907841
9.7978756415150574
9.7794659132319186
9.7661157925267439
9.7651864010249749
9.7415754349498922
9.7259256426107275
9.7271514017426792
9.7056471429309212
9.6910725099234316
9.6959060938906561
9.6737821010182667
9.6602928461879891
9.6750028727904063
9.6520832276721933
9.6497951476271968
9.6311712790311290
9.6305830321083938
9.6142840531742984
9.6119974444390106
9.6204793979332202
9.5914308288525252
9.5960378319416488
9.5830591706317243
9.5724819789423332
9.5726239618428313
9.5663247195747356
9.5556478584177231
9.5644750318441840
9.5471544613173958
9.5500004217499637
9.5372029591920757
9.5405602240171543
9.5367836503530423
9.5215039054504302
9.5234955760073579
9.5264871804499958
9.5092826201389045
9.5172347734671323
9.5023293467171950
9.5017931384612293
9.4973939197675428
9.4957581759010257
9.4812269228865453
9.4903654955531316
9.4770643038256885
9.4780751861825916
9.4657523603808951
9.4744407933943222
9.4608615912263598
9.4595338938171434
9.4586777839021821
9.4553941203742369
9.4571942239386306
9.4436770091972058
9.4543895956625672
9.4367450474742238
9.4450521731591710
9.4346176106974351
9.4369062486489810
9.4269374018867982
9.4290470764998062
9.4200779077280359
9.4249927142486598
9.4125312233085268
9.4167986390076042
9.4125960140731220
9.4071756765602466
9.4091842503633476
9.3993715688081174
9.4011252178222744
9.3920636663230148
9.3980611896052615
9.3890476326728187
9.3920740934932692
9.3856566469158125
9.3828642593708729
9.3813869816097508
9.3832985056694582
9.3800714214795917
9.3752930222251543
9.3726395073130533
9.3709839767917202
9.3664408402203883
9.3691928986813870
9.3623604274305823
9.3655899722679550
9.3641784800326420
9.3612790701539765
9.3601880816289285
9.3570122386134216
9.3529606464652204
9.3522628169900113
9.3514912714552523
9.3487510528966986
9.3458843957287652
9.3436688510850523
9.3385208520606131
9.3399273609432854
9.3402609530586798
9.3335877447772368
9.3338926199147458
9.3319671238587176
9.3320017356441305
9.3254551825476195
9.3259435107578916
9.3231328933147974
9.3226992895305525
9.3167372805209983
9.3158440435152698
9.3076173373654658
9.3117078986620836
9.3051569889839278
9.3017113344965825
9.3049396501165269
9.3001350773841036
9.2986568094458608
9.2962771623099538
9.2935562228385571
9.2919158816880127
9.2893250790962831
9.2856200950779293
9.2850847813611885
9.2842833939341283
9.2819708400021437
9.2804892432983035
9.2781208462453648
9.2791908659611693
9.2732306571330412
9.2724692556550679
9.2711981143870350
9.2700738036042409
9.2680462964735018
9.2669599459595098
9.2641226308367379
9.2671616260693845
9.2614315222308772
9.2595658653571906
9.2599901708389307
9.2587843669199508
9.2564566463757583
9.2552254219878130
9.2544729061579805
9.2535931004527345
9.2511397943780782
9.2502124912205463
9.2507204776053591
9.2462640497515967
9.2457176372781813
9.2470552306678151
9.2428896140511352
9.2416848549713571
9.2407162014797102
9.2401108170286523
9.2381965814069567
9.2372122141033337
9.2352468231102023
9.2364200662607789
9.2325543943531336
9.2331087183678981
9.2313239625882826
9.2292268500231600
9.2283696474953292
9.2294003568218219
9.2251417850985806
9.2245978560044897
9.2238316406851499
9.2229281653217896
9.2228370960218840
9.2192894933287519
9.2188562146873245
9.2182030407389171
9.2171032728889362
9.2169770575213654
9.2140311685711342
9.2134670769958955
9.2136258876663906
9.2121072147036660
9.2121431109083094
9.2080676847210370
9.2082132076988437
9.2084587425165267
9.2068524879256977
9.2068392689019820
9.2029956945405686
9.2033088538223495
9.2034234760228362
9.2019006897229065
9.2005737110236527
9.1988793866627265
9.1993512637446564
9.1968661835482237
9.1970456100631193
9.1965685348854560
9.1951582978608499
9.1950620901175473
9.1924288509467669
9.1926825818341698
9.1922079370060228
9.1908630945750556
9.1886395056225325
9.1878976138396755
9.1874818926955015
9.1870143033611669
9.1857863099307497
9.1848954366233659
9.1846041377108065
9.1831567868484250
9.1824596743103761
9.1821184101447457
9.1813972378108488
9.1803438965010304
9.1799825956852636
9.1789583136616972
9.1776974447218151
9.1776059049333423
9.1764921593294577
9.1763828839076833
9.1753800180115181
9.1744650848548250
9.1742719670788393
9.1732107624024763
9.1732070387114177
9.1722686223870493
9.1717028073806066
9.1707713918951459
9.1700457050479862
9.1693299015377310
9.1689425102565547
9.1681887554189512
9.1675108220675838
9.1672209732781855
9.1661813331294777
9.1656526409275880
9.1651590197900461
9.1648159183547175
9.1641910832586539
9.1634547612390058
9.1631716909943748
9.1621971745361126
9.1619687598152861
9.1612945694814858
9.1607399910563867
9.1601488546959615
9.1596372167207125
9.1590988697552973
9.1585020056221911
9.1581446394488921
9.1574467971190323
9.1569228306795516
9.1564526086840985
9.1559191913026137
9.1555106942591316
9.1548945735682992
9.1546877635833894
9.1541018907661034
9.1532969588761119
9.1529762321573838
9.1524570015286031
9.1522810701567536
9.1517173189147520
9.1512321957929856
9.1507171226095032
9.1501672824648121
9.1496945990118110
9.1493786194596467
9.1489869215572242
9.1485658034779895
9.1479629335388211
9.1475752288382672
9.1473122723630542
9.1468138143460429
9.1465736952536005
9.1459201847537557
9.1455730093714092
9.1453644181432026
9.1456109620397683
9.1447627627393047
9.1442076145857651
9.1441830451386004
9.1435932246535110
9.1430080564481013
9.1435181843931748
9.1425231689012598
9.1428614952437286
9.1418433466588382
9.1419666659521148
9.1415323416312297
9.1409382421315346
9.1414959001313800
9.1400784079558139
9.1401380002567318
9.1398598027171865
9.1398483876545633
9.1389984596809004
9.1394442019759161
9.1382809530802351
9.1385626888863190
9.1379799581076266
9.1381902195046134
9.1370593674495026
9.1375338177119119
9.1365634045109410
9.1366858947193847
9.1359882354805944
9.1360399522470690
9.1360707341112324
9.1355984770766181
9.1351173480704002
9.1347767269601814
9.1344215400463096
9.1340882646909218
9.1337824064008331
9.1336266163858451
9.1331472322148386
9.1329776358328143
9.1325676994563789
9.1324326680681871
9.1324962470799882
9.1315246600224977
9.1316929566690721
9.1313636499973239
9.1314905667701449
9.1305198331929969
9.1307099177039248
9.1303861797985562
9.1305347672102819
9.1296170229576710
9.1297312393734007
9.1297669725576327
9.1290733916117599
9.1291164771550584
9.1291310885531800
9.1284106815535342
9.1284079097168469
9.1283539026425302
9.1282925759499687
9.1275903074816878
9.1277823820990189
9.1271725454263599
9.1273935176440144
9.1267570924980710
9.1267701789913591
9.1269605406370342
9.1261200215082834
9.1263314182296771
9.1259459140582102
9.1260606135461142
9.1254302348832450
9.1255084226504817
9.1256001438226608
9.1248719244316092
9.1248502296119938
9.1248483606483859
9.1248608147863539
9.1241372955280831
9.1244207929989045
9.1240544420892942
9.1239711706878790
9.1240767622257923
9.1233794484474107
9.1232801533275278
9.1232958052965891
9.1234161853648281
9.1227038532083018
9.1226270281679493
9.1227695296698688
9.1221970667109744
9.1221960994946301
9.1222612123420319
9.1224006378157974
9.1216422222996325
9.1219323454783119
9.1213363176227311
9.1213104946794044
9.1214849181132873
9.1211067273258415
9.1211954371646389
9.1208029448387098
9.1209653938065660
9.1203267192166813
9.1203131592208830
9.1205017135900928
9.1201168958620258
9.1203310288894990
9.1196524824614187
9.1199747160182376
9.1195009535434171
9.1196526909528473
9.1192379556619869
9.1194314509570145
9.1188067619455406
9.1187674516039134
9.1189508260317798
9.1185832131144533
9.1187659048901288
9.1181459888246952
9.1180922270372449
9.1182826884787307
9.1920109327308754
10.3101935694724904
9.9236782615503252
9.6621270510154993
9.3275107925338769
9.1069997712851833
8.8370777545378179
8.7430669244596402
8.6778553238900873
8.4911376285589721
8.4351511791475726
8.3934772854722901
8.3599150800318665
8.2747231387981177
8.3163127730379838
8.2314393604962994
8.1735782050309922
8.1647193093348580
8.8576535675281498
8.5863003530072586
8.4220935528128056
8.3612359748214526
8.2815842273196694
8.2187978072212076
8.0943679181941768
8.0479350679514372
7.9978440285041685
7.9182876278191996
7.8503627871224522
7.7821547363093444
7.7716075440553283
7.6844535027917829
7.6328599340645216
7.6286813012645522
7.5670404645079978
7.5103109588104520
7.5002316290250128
7.4694531935366557
7.4099223099913809
7.3355782044504840
7.3199256197510261
7.2825481158812702
7.2479541734298163
7.2232848003131416
7.1762225809285694
7.1758954548481642
7.1276992144023774
7.1280408263344190
7.1058145881623496
7.1183481901185877
7.0763400769125013
7.0418659656359264
7.0311290223814620
7.0488317993585188
7.0065433554838474
6.9909799732420765
6.9958686455245704
6.9605363665099764
6.9446724490500769
6.9580913413268082
6.9173262353322569
6.9321902355673624
6.9014123269723342
6.9151575122583280
6.9154305413995312
6.8636160254838359
6.8551645465603306
6.8612577352285333
6.8507716398531127
6.8639637188456213
6.8060297186080243
6.8353300760209272
6.7922052042146621
6.8242796951104641
6.7717451342824653
6.7993495743587022
6.7617324078544199
6.7439201766191763
6.7803848018562434
6.7296305068625752
6.7545003282668921
6.7136499936607077
6.7253013137564395
6.7047610797850687
6.7234179043016251
6.6901577749282506
6.6902756884191756
6.6732676347344855
6.6929375623788543
6.6633299756145279
6.6606344355649529
6.6521927396705562
6.6591645331310128
6.6335103001834144
6.6466455045883617
6.6195461478291477
6.6327319502069448
6.6095128612897867
6.8124252214361745
6.7243394884991439
6.6908764562978780
6.6302179604540807
6.5938988447619220
6.5618105763185728
6.5283471783282812
6.5145837051486266
6.4689456529323559
6.4424282747953665
6.4150352302155440
6.4234796135862942
6.3948707574553572
6.3550580789302913
6.3454569069025268
6.3251820355635946
6.3068578713203332
6.3246443486165393
6.2932224958785596
6.2664006891730528
6.2831470329295165
6.2487478196527357
6.2308835335593322
6.2283108994865541
6.2366803901305392
6.2066187655629967
6.2256390921806508
6.1938375020350653
6.1836480795515989
6.1768733807189076
6.1541278585694954
6.1543023619692070
6.1698400616197775
6.1396317303100147
6.1501338579578855
6.1244327814717909
6.1377833828529065
6.1069690901786924
6.1028960940991919
6.1007725558494004
6.0839328443612608
6.1028190903511499
6.0760838187465387
6.0734689616967090
6.0603588687287235
6.0697182229358946
6.0500808270102100
6.0462138745313725
6.0330800452989122
6.0331178784369621
6.0399860221995532
6.0293674119496723
6.0154333098577730
6.0171774780344816
6.0038114549212569
5.9987032517785357
5.9977695650270082
5.9831281706387065
5.9824304972315279
5.9735376024048117
5.9718268424016738
5.9710887946990248
5.9620229750907683
5.9492791161444734
5.9563870307423530
5.9388404773180383
5.9355425217873581
5.9328733798266606
5.9349287737620884
5.9204466338255646
5.9261201870968794
5.9084520791281747
5.9016173763181614
5.9090504405657018
5.8932703792272738
6.0496731407906736
5.8868433294982818
5.8393337737389537
5.8267661701561435
5.7565229271009164
5.6870784839339716
5.7099791863054667
5.6727458055610800
5.6005065112814938
5.6110866342687951
5.6060987387342482
5.5711665728262281
5.5192309686570109
5.4997671942873838
5.4624052321121761
5.4694254669929716
5.4701605384141310
5.4314422211865878
5.4452736027779620
5.4168219313107544
5.3965811076212473
5.3672399393913413
5.3742220532864389
5.3492158159664998
5.3300709301550286
5.2829088240760917
5.2925048158119976
5.3002063334509488
5.2767849392489268
5.2572013360874106
5.2599160007125079
5.2448079556446228
5.2288424646895253
5.2101459545256370
5.1935124950399869
5.1989540614063463
5.1786149888368049
5.1758943324335576
5.1654128360467144
5.1472172323001431
5.1296660195770958
5.1402946324536698
5.1188588976632206
5.1159317854024300
5.1073082234952549
5.0963455694423700
5.0813217362383085
5.0633276719218587
5.0727682000243455
5.0559729840087657
5.0366865717684908
5.0467348691142488
5.0314111002014501
5.0242000358693293
5.0037668475876629
5.0108672122072422
5.0010195491875917
4.9926548788192155
4.9822555581836063
4.9670309439564111
4.9751126152069407
4.9623322058267805
4.9463867257110294
4.9537982787317247
4.9442407130064581
4.9257429080229151
4.9344229820868604
4.9266109937749114
4.9087510070111744
4.9129274950319646
4.8964977900005486
4.9031321015287199
4.8955129457323112
4.8788921644228829
4.8850820149166374
4.8777460770478429
4.8627307464448712
4.8685123424246246
4.8616900516561055
4.8497807645048274
4.8523760773924316
4.8380420115728002
4.8438747124811572
4.8271032091513293
4.8336389538632183
4.8178731975790887
4.8238827024102422
4.8092042766163763
4.8147792652435095
Start : 1549693020, end : 1549693094, Total Time = 73 Sec